<soapenv:Envelope xmlns:soapenv="http://schemas.xmlsoap.org/soap/envelope/">
   <soapenv:Header>
      <ns6:serviceRequestHeader soapenv:mustUnderstand="0" xmlns:ns6="http://www.ingrammicro.com/common/ServiceRequestHeader_v1_0/types">
         <applicationCredential>
            <ID>@ID</ID>
            <credential>@credential</credential>
         </applicationCredential>
         <clientTransactionID>IM-0000330437-SO</clientTransactionID>
         <isoLanguageCode>US</isoLanguageCode>
         <purposeCode>orderCreateRequest</purposeCode>
         <transactionID>4102320407102804</transactionID>
         <transactionModel>
            <synchronousRequest>true</synchronousRequest>
         </transactionModel>
         <userCredential>
            <ID>@ID</ID>
            <credential>@credential</credential>
         </userCredential>
      </ns6:serviceRequestHeader>
   </soapenv:Header>
   <soapenv:Body>
      <ns1:serviceRequest xmlns:ns1="http://www.ingrammicro.com/order/OrderCreateRequest_v1_0/types">
         <orderCreateRequest>
            <entryMethod>GSSW</entryMethod>
            <operatorID>I1TH</operatorID>
            <isSalesman>I1TH</isSalesman>
            <customerOrderNumber>INGRAM</customerOrderNumber>
            <duplicateCustomerOrderNumberValidate>WARN</duplicateCustomerOrderNumberValidate>
            <endUserOrderNumber/>
            <billToSuffix>000</billToSuffix>
            <emailAddress/>
            <carrierCode/>
            <terms>@terms</terms>
            <isDirectShipOrder>false</isDirectShipOrder>
            <isOrderDetailsRequired>true</isOrderDetailsRequired>
            <SHipCTACEmail/>
            <RSLRCTACEmail/>
            <ShipCTACPhone/>
            <VendAuthNumber/>
            <EUPONumber/>
            <line>
               <lineType>C</lineType>
               <ns1:commentLine>
                  <commentText1>HEADER</commentText1>
               </ns1:commentLine>
            </line>
            @start<line>
               <lineType>P</lineType>
               <ns1:stockLine>
                  <branchNumber>@branchNumber</branchNumber>
                  <quantity>@quantityOrdered</quantity>
                  <ingramPartNumber>@partNumber</ingramPartNumber>
                  <unitPrice>0.00</unitPrice>
                  <singleSourceInfo>
                     <endUserID>42155</endUserID>
                     <addressSequenceNumber>2</addressSequenceNumber>
                     <ctacID>0</ctacID>
                     <euDataAvailableSwitch>Y</euDataAvailableSwitch>
                     <authBidNumber/>
                     <PRODMDLNumber/>
                     <LCNSGSRVNumber/>
                  </singleSourceInfo>
               </ns1:stockLine>
            </line>@end
         </orderCreateRequest>
         <requestPreamble>
            <companyCode>@companyCode</companyCode>
            <customerNumber>@customerNumber</customerNumber>
         </requestPreamble>
      </ns1:serviceRequest>
   </soapenv:Body>
</soapenv:Envelope>
